(module Harwin_M20-7911042R_1x10_P2.54_Horizontal (layer F.Cu) (tedit 5CA51AC8)
  (attr smd)
  (fp_text reference REF** (at 0 -1.9) (layer F.SilkS)
    (effects (font (size 1 1) (thickness 0.15)))
  )
  (fp_text value Harwin_M20-7911042R_1x10_P2.54_Horizontal (at 0 2.3) (layer F.Fab)
    (effects (font (size 1 1) (thickness 0.15)))
  )
  (fp_line (start -12.825 -2.975) (end 12.825 -2.975) (layer F.SilkS) (width 0.15))
  (fp_line (start -12.825 -11.475) (end 12.825 -11.475) (layer F.SilkS) (width 0.15))
  (fp_line (start -12.825 -11.475) (end -12.825 -2.975) (layer F.SilkS) (width 0.15))
  (fp_line (start 12.825 -11.475) (end 12.825 -2.975) (layer F.SilkS) (width 0.15))
  (fp_line (start -13.1 -11.7) (end 13.1 -11.7) (layer F.CrtYd) (width 0.05))
  (fp_line (start 13.1 -11.7) (end 13.1 1.2) (layer F.CrtYd) (width 0.05))
  (fp_line (start 13.1 1.2) (end -13.1 1.2) (layer F.CrtYd) (width 0.05))
  (fp_line (start -13.1 -11.7) (end -13.1 1.2) (layer F.CrtYd) (width 0.05))
  (pad 6 smd roundrect (at 1.27 0) (size 1.02 2) (layers F.Cu F.Paste F.Mask) (roundrect_rratio 0.25))
  (pad 5 smd roundrect (at -1.27 0) (size 1.02 2) (layers F.Cu F.Paste F.Mask) (roundrect_rratio 0.25))
  (pad 7 smd roundrect (at 3.81 0) (size 1.02 2) (layers F.Cu F.Paste F.Mask) (roundrect_rratio 0.25))
  (pad 4 smd roundrect (at -3.81 0) (size 1.02 2) (layers F.Cu F.Paste F.Mask) (roundrect_rratio 0.25))
  (pad 8 smd roundrect (at 6.35 0) (size 1.02 2) (layers F.Cu F.Paste F.Mask) (roundrect_rratio 0.25))
  (pad 3 smd roundrect (at -6.35 0) (size 1.02 2) (layers F.Cu F.Paste F.Mask) (roundrect_rratio 0.25))
  (pad 9 smd roundrect (at 8.89 0) (size 1.02 2) (layers F.Cu F.Paste F.Mask) (roundrect_rratio 0.25))
  (pad 2 smd roundrect (at -8.89 0) (size 1.02 2) (layers F.Cu F.Paste F.Mask) (roundrect_rratio 0.25))
  (pad 10 smd roundrect (at 11.43 0) (size 1.02 2) (layers F.Cu F.Paste F.Mask) (roundrect_rratio 0.25))
  (pad 1 smd roundrect (at -11.43 0) (size 1.02 2) (layers F.Cu F.Paste F.Mask) (roundrect_rratio 0.25))
)
