(module LED_SunLED_PLCC4_3.2x2.8mm_P1.45mm (layer F.Cu) (tedit 5CA51AFA)
  (descr https://www.sunledusa.com/products/spec/XZMDKCBDDG45S-9.pdf)
  (attr smd)
  (fp_text reference REF** (at 0 -2.7) (layer F.SilkS)
    (effects (font (size 1 1) (thickness 0.15)))
  )
  (fp_text value LED_SunLED_PLCC4_3.2x2.8mm_P1.45mm (at 0 2.8) (layer F.Fab)
    (effects (font (size 1 1) (thickness 0.15)))
  )
  (fp_line (start 3.5 2) (end -3.5 2) (layer F.SilkS) (width 0.15))
  (fp_line (start 3.5 -2) (end 3.5 -1.6) (layer F.SilkS) (width 0.15))
  (fp_line (start -3.5 -2) (end 3.5 -2) (layer F.SilkS) (width 0.15))
  (fp_line (start -3.5 -2) (end 3.5 -2) (layer F.CrtYd) (width 0.05))
  (fp_line (start 3.5 -2) (end 3.5 2) (layer F.CrtYd) (width 0.05))
  (fp_line (start 3.5 2) (end -3.5 2) (layer F.CrtYd) (width 0.05))
  (fp_line (start -3.5 2) (end -3.5 -2) (layer F.CrtYd) (width 0.05))
  (pad 1 smd roundrect (at 2.6 -0.725) (size 1.4 0.8) (layers F.Cu F.Paste F.Mask) (roundrect_rratio 0.25))
  (pad 2 smd roundrect (at -2.6 -0.725) (size 1.4 0.8) (layers F.Cu F.Paste F.Mask) (roundrect_rratio 0.25))
  (pad 3 smd roundrect (at -2.6 0.725) (size 1.4 0.8) (layers F.Cu F.Paste F.Mask) (roundrect_rratio 0.25))
  (pad 4 smd roundrect (at 2.6 0.725) (size 1.4 0.8) (layers F.Cu F.Paste F.Mask) (roundrect_rratio 0.25))
  (pad "" np_thru_hole circle (at 0 0) (size 3.2 3.2) (drill 3.2) (layers *.Cu *.Mask))
)
