(module USB_Micro-B_Amphenol-10118193-0001 (layer F.Cu) (tedit 5CA4FB93)
  (descr https://www.amphenol-icc.com/media/wysiwyg/files/drawing/10118193.pdf)
  (tags "Micro-USB SMD Typ-B")
  (attr smd)
  (fp_text reference REF** (at 0 -3.05) (layer F.SilkS)
    (effects (font (size 1 1) (thickness 0.15)))
  )
  (fp_text value USB_Micro-B_Amphenol-10118193-0001 (at 0 4.45) (layer F.Fab)
    (effects (font (size 1 1) (thickness 0.15)))
  )
  (fp_line (start -3 2.65) (end 3 2.65) (layer F.Fab) (width 0.1))
  (fp_line (start -3.7 3.35) (end -3.7 -1.7) (layer F.Fab) (width 0.1))
  (fp_line (start -3.7 -1.7) (end 3.7 -1.7) (layer F.Fab) (width 0.1))
  (fp_line (start 3.7 3.35) (end 3.7 -1.7) (layer F.Fab) (width 0.1))
  (fp_line (start -3.7 3.35) (end 3.7 3.35) (layer F.Fab) (width 0.1))
  (fp_text user "PCB Edge" (at 0 2.65) (layer Dwgs.User)
    (effects (font (size 0.5 0.5) (thickness 0.08)))
  )
  (fp_line (start 3.85 -0.4) (end 3.85 0.475) (layer F.SilkS) (width 0.15))
  (fp_line (start 3.85 1.925) (end 3.85 2.525) (layer F.SilkS) (width 0.15))
  (fp_line (start -3.85 1.925) (end -3.85 2.525) (layer F.SilkS) (width 0.15))
  (fp_line (start -3.85 -0.4) (end -3.85 0.475) (layer F.SilkS) (width 0.15))
  (fp_line (start -2.2 -1.85) (end -1.7 -1.85) (layer F.SilkS) (width 0.15))
  (fp_line (start -1.7 -1.85) (end -1.7 -2.125) (layer F.SilkS) (width 0.15))
  (fp_line (start -1.5 -2.15) (end -1.1 -2.15) (layer F.Fab) (width 0.1))
  (fp_line (start -1.5 -1.9) (end -1.3 -1.7) (layer F.Fab) (width 0.1))
  (fp_line (start -1.1 -1.9) (end -1.3 -1.7) (layer F.Fab) (width 0.1))
  (fp_line (start -1.1 -2.15) (end -1.1 -1.9) (layer F.Fab) (width 0.1))
  (fp_line (start -1.5 -2.15) (end -1.5 -1.9) (layer F.Fab) (width 0.1))
  (fp_line (start -4.4 -2.45) (end 4.4 -2.45) (layer F.CrtYd) (width 0.05))
  (fp_line (start 4.4 3.65) (end 4.4 -2.45) (layer F.CrtYd) (width 0.05))
  (fp_line (start -4.4 3.65) (end -4.4 -2.45) (layer F.CrtYd) (width 0.05))
  (fp_line (start -4.4 3.65) (end 4.4 3.65) (layer F.CrtYd) (width 0.05))
  (fp_line (start 1.7 -1.85) (end 2.2 -1.85) (layer F.SilkS) (width 0.15))
  (pad 6 smd roundrect (at 1.2 1.2) (size 1.9 1.85) (layers F.Cu F.Paste F.Mask) (roundrect_rratio 0.25))
  (pad 6 smd roundrect (at -1.2 1.2) (size 1.9 1.85) (layers F.Cu F.Paste F.Mask) (roundrect_rratio 0.25))
  (pad 6 thru_hole oval (at 3.3 1.2) (size 0.9 1.6) (drill oval 0.5 1.2) (layers *.Cu *.Mask))
  (pad 6 thru_hole oval (at -3.3 1.2) (size 0.9 1.6) (drill oval 0.5 1.2) (layers *.Cu *.Mask))
  (pad 6 smd roundrect (at 3.2 -1.3) (size 1.6 1.4) (layers F.Cu F.Paste F.Mask) (roundrect_rratio 0.25))
  (pad 6 smd roundrect (at -3.2 -1.3) (size 1.6 1.4) (layers F.Cu F.Paste F.Mask) (roundrect_rratio 0.25))
  (pad 5 smd roundrect (at 1.3 -1.5) (size 0.4 1.3) (layers F.Cu F.Paste F.Mask) (roundrect_rratio 0.25))
  (pad 4 smd roundrect (at 0.65 -1.5) (size 0.4 1.3) (layers F.Cu F.Paste F.Mask) (roundrect_rratio 0.25))
  (pad 3 smd roundrect (at 0 -1.5) (size 0.4 1.3) (layers F.Cu F.Paste F.Mask) (roundrect_rratio 0.25))
  (pad 2 smd roundrect (at -0.65 -1.5) (size 0.4 1.3) (layers F.Cu F.Paste F.Mask) (roundrect_rratio 0.25))
  (pad 1 smd roundrect (at -1.3 -1.5) (size 0.4 1.3) (layers F.Cu F.Paste F.Mask) (roundrect_rratio 0.25))
  (model ${KISYS3DMOD}/Connector_USB.3dshapes/USB_Micro-B_Molex_47346-0001.wrl
    (at (xyz 0 0 0))
    (scale (xyz 1 1 1))
    (rotate (xyz 0 0 0))
  )
)
