EESchema Schematic File Version 4
LIBS:f100-cache
EELAYER 26 0
EELAYER END
$Descr A4 11693 8268
encoding utf-8
Sheet 3 5
Title "Memory & IO"
Date "2019-05-09"
Rev "1.3"
Comp ""
Comment1 ""
Comment2 ""
Comment3 ""
Comment4 ""
$EndDescr
Text GLabel 3050 2500 2    50   BiDi ~ 0
FMC_D0
Text GLabel 3050 2400 2    50   BiDi ~ 0
FMC_D1
Text GLabel 3050 1900 2    50   BiDi ~ 0
FMC_D2
Text GLabel 3050 2000 2    50   BiDi ~ 0
FMC_D3
Text GLabel 3050 1800 2    50   BiDi ~ 0
FMC_D4
Text GLabel 3050 1700 2    50   BiDi ~ 0
FMC_D5
Text GLabel 3050 1600 2    50   BiDi ~ 0
FMC_D6
Text GLabel 3050 1500 2    50   BiDi ~ 0
FMC_D7
Text GLabel 3050 1400 2    50   BiDi ~ 0
FMC_D8
Text GLabel 3050 1300 2    50   BiDi ~ 0
FMC_D9
Text GLabel 3050 2100 2    50   BiDi ~ 0
FMC_D10
Text GLabel 3050 2200 2    50   BiDi ~ 0
FMC_D11
Text GLabel 3050 2300 2    50   BiDi ~ 0
FMC_D12
Text GLabel 3050 2600 2    50   BiDi ~ 0
FMC_D13
Text GLabel 3050 2700 2    50   BiDi ~ 0
FMC_D14
Text GLabel 3050 2800 2    50   BiDi ~ 0
FMC_D15
Wire Wire Line
	2950 1300 3050 1300
Wire Wire Line
	2950 1400 3050 1400
Wire Wire Line
	2950 1500 3050 1500
Wire Wire Line
	2950 1600 3050 1600
Wire Wire Line
	3050 1700 2950 1700
Wire Wire Line
	2950 1800 3050 1800
Wire Wire Line
	3050 1900 2950 1900
Wire Wire Line
	2950 2000 3050 2000
Wire Wire Line
	3050 2100 2950 2100
Wire Wire Line
	2950 2200 3050 2200
Wire Wire Line
	3050 2300 2950 2300
Wire Wire Line
	2950 2400 3050 2400
Wire Wire Line
	3050 2500 2950 2500
Wire Wire Line
	2950 2600 3050 2600
Wire Wire Line
	3050 2700 2950 2700
Wire Wire Line
	2950 2800 3050 2800
Text GLabel 1250 1300 0    50   Input ~ 0
FMC_A0
Text GLabel 1250 1400 0    50   Input ~ 0
FMC_A1
Text GLabel 1250 1500 0    50   Input ~ 0
FMC_A2
Text GLabel 1250 1600 0    50   Input ~ 0
FMC_A3
Text GLabel 1250 1700 0    50   Input ~ 0
FMC_A4
Text GLabel 1250 1800 0    50   Input ~ 0
FMC_A5
Text GLabel 1250 1900 0    50   Input ~ 0
FMC_A6
Text GLabel 1250 2000 0    50   Input ~ 0
FMC_A7
Text GLabel 1250 2100 0    50   Input ~ 0
FMC_A8
Text GLabel 1250 2200 0    50   Input ~ 0
FMC_A9
Text GLabel 1250 2300 0    50   Input ~ 0
FMC_A10
Text GLabel 1250 2400 0    50   Input ~ 0
FMC_A11
Text GLabel 1250 2500 0    50   Input ~ 0
FMC_A12
Text GLabel 1250 2900 0    50   Input ~ 0
FMC_SDCLK
Text GLabel 1250 3150 0    50   Input ~ 0
FMC_SDNRAS
Text GLabel 1250 3250 0    50   Input ~ 0
FMC_SDNCAS
Text GLabel 1250 3350 0    50   Input ~ 0
FMC_SDNWE
Text GLabel 1250 3000 0    50   Input ~ 0
FMC_SDCKE1
Text GLabel 1250 3500 0    50   Input ~ 0
FMC_SDNE1
Wire Wire Line
	1250 3500 1350 3500
Wire Wire Line
	1350 3350 1250 3350
Wire Wire Line
	1250 3250 1350 3250
Wire Wire Line
	1350 3150 1250 3150
Wire Wire Line
	1250 3000 1350 3000
Wire Wire Line
	1350 2900 1250 2900
Wire Wire Line
	1350 2500 1250 2500
Wire Wire Line
	1350 2400 1250 2400
Wire Wire Line
	1250 2300 1350 2300
Wire Wire Line
	1350 2200 1250 2200
Wire Wire Line
	1350 2100 1250 2100
Wire Wire Line
	1250 2000 1350 2000
Wire Wire Line
	1350 1900 1250 1900
Wire Wire Line
	1250 1800 1350 1800
Wire Wire Line
	1350 1700 1250 1700
Wire Wire Line
	1250 1600 1350 1600
Wire Wire Line
	1350 1500 1250 1500
Wire Wire Line
	1250 1400 1350 1400
Wire Wire Line
	1350 1300 1250 1300
Text GLabel 3050 3100 2    50   Input ~ 0
FMC_NBL0
Text GLabel 3050 3200 2    50   Input ~ 0
FMC_NBL1
Wire Wire Line
	2950 3100 3050 3100
Wire Wire Line
	3050 3200 2950 3200
Wire Wire Line
	1250 2650 1350 2650
Wire Wire Line
	1350 2750 1250 2750
Text GLabel 1250 2650 0    50   Input ~ 0
FMC_BA0
Text GLabel 1250 2750 0    50   Input ~ 0
FMC_BA1
$Comp
L Device:C_Small C29
U 1 1 5C5DBFBB
P 2500 4600
F 0 "C29" H 2592 4646 50  0000 L CNN
F 1 "100nF" H 2592 4555 50  0000 L CNN
F 2 "Capacitor_SMD:C_0603_1608Metric" H 2500 4600 50  0001 C CNN
F 3 "~" H 2500 4600 50  0001 C CNN
	1    2500 4600
	1    0    0    -1  
$EndComp
$Comp
L Device:C_Small C28
U 1 1 5C5DE848
P 2100 4600
F 0 "C28" H 2192 4646 50  0000 L CNN
F 1 "100nF" H 2192 4555 50  0000 L CNN
F 2 "Capacitor_SMD:C_0603_1608Metric" H 2100 4600 50  0001 C CNN
F 3 "~" H 2100 4600 50  0001 C CNN
	1    2100 4600
	1    0    0    -1  
$EndComp
$Comp
L power:+3.3V #PWR0133
U 1 1 5C5E109C
P 1850 850
F 0 "#PWR0133" H 1850 700 50  0001 C CNN
F 1 "+3.3V" H 1865 1023 50  0000 C CNN
F 2 "" H 1850 850 50  0001 C CNN
F 3 "" H 1850 850 50  0001 C CNN
	1    1850 850 
	1    0    0    -1  
$EndComp
$Comp
L power:GND #PWR0134
U 1 1 5C5FB9D2
P 1850 3950
F 0 "#PWR0134" H 1850 3700 50  0001 C CNN
F 1 "GND" H 1855 3777 50  0000 C CNN
F 2 "" H 1850 3950 50  0001 C CNN
F 3 "" H 1850 3950 50  0001 C CNN
	1    1850 3950
	1    0    0    -1  
$EndComp
$Comp
L Device:C_Small C31
U 1 1 5C60D90C
P 3300 4600
F 0 "C31" H 3392 4646 50  0000 L CNN
F 1 "100nF" H 3392 4555 50  0000 L CNN
F 2 "Capacitor_SMD:C_0603_1608Metric" H 3300 4600 50  0001 C CNN
F 3 "~" H 3300 4600 50  0001 C CNN
	1    3300 4600
	1    0    0    -1  
$EndComp
$Comp
L Device:C_Small C30
U 1 1 5C60D913
P 2900 4600
F 0 "C30" H 2992 4646 50  0000 L CNN
F 1 "100nF" H 2992 4555 50  0000 L CNN
F 2 "Capacitor_SMD:C_0603_1608Metric" H 2900 4600 50  0001 C CNN
F 3 "~" H 2900 4600 50  0001 C CNN
	1    2900 4600
	1    0    0    -1  
$EndComp
Wire Wire Line
	2100 4500 2100 4400
Wire Wire Line
	2100 4800 2100 4700
Wire Wire Line
	2100 4800 2500 4800
Wire Wire Line
	2500 4800 2500 4700
Wire Wire Line
	2500 4800 2900 4800
Wire Wire Line
	2900 4800 2900 4700
Connection ~ 2500 4800
Wire Wire Line
	2900 4800 3300 4800
Wire Wire Line
	3300 4800 3300 4700
Connection ~ 2900 4800
Wire Wire Line
	2500 4500 2500 4400
Wire Wire Line
	2500 4400 2100 4400
Wire Wire Line
	2900 4500 2900 4400
Wire Wire Line
	2900 4400 2500 4400
Connection ~ 2500 4400
Wire Wire Line
	3300 4500 3300 4400
Wire Wire Line
	3300 4400 2900 4400
Connection ~ 2900 4400
$Comp
L Device:C_Small C26
U 1 1 5C6262A8
P 1300 4600
F 0 "C26" H 1392 4646 50  0000 L CNN
F 1 "100nF" H 1392 4555 50  0000 L CNN
F 2 "Capacitor_SMD:C_0603_1608Metric" H 1300 4600 50  0001 C CNN
F 3 "~" H 1300 4600 50  0001 C CNN
	1    1300 4600
	1    0    0    -1  
$EndComp
$Comp
L Device:C_Small C25
U 1 1 5C6262AF
P 900 4600
F 0 "C25" H 992 4646 50  0000 L CNN
F 1 "100nF" H 992 4555 50  0000 L CNN
F 2 "Capacitor_SMD:C_0603_1608Metric" H 900 4600 50  0001 C CNN
F 3 "~" H 900 4600 50  0001 C CNN
	1    900  4600
	1    0    0    -1  
$EndComp
$Comp
L Device:C_Small C27
U 1 1 5C6262B6
P 1700 4600
F 0 "C27" H 1792 4646 50  0000 L CNN
F 1 "100nF" H 1792 4555 50  0000 L CNN
F 2 "Capacitor_SMD:C_0603_1608Metric" H 1700 4600 50  0001 C CNN
F 3 "~" H 1700 4600 50  0001 C CNN
	1    1700 4600
	1    0    0    -1  
$EndComp
$Comp
L power:GND #PWR0135
U 1 1 5C6262BD
P 900 4900
F 0 "#PWR0135" H 900 4650 50  0001 C CNN
F 1 "GND" H 905 4727 50  0000 C CNN
F 2 "" H 900 4900 50  0001 C CNN
F 3 "" H 900 4900 50  0001 C CNN
	1    900  4900
	1    0    0    -1  
$EndComp
$Comp
L power:+3.3V #PWR0136
U 1 1 5C6262C3
P 900 4300
F 0 "#PWR0136" H 900 4150 50  0001 C CNN
F 1 "+3.3V" H 915 4473 50  0000 C CNN
F 2 "" H 900 4300 50  0001 C CNN
F 3 "" H 900 4300 50  0001 C CNN
	1    900  4300
	1    0    0    -1  
$EndComp
Wire Wire Line
	900  4500 900  4400
Wire Wire Line
	900  4800 900  4700
Wire Wire Line
	900  4800 1300 4800
Wire Wire Line
	1300 4800 1300 4700
Wire Wire Line
	1300 4800 1700 4800
Wire Wire Line
	1700 4800 1700 4700
Connection ~ 1300 4800
Wire Wire Line
	1300 4500 1300 4400
Wire Wire Line
	1300 4400 900  4400
Wire Wire Line
	1700 4500 1700 4400
Wire Wire Line
	1700 4400 1300 4400
Connection ~ 1300 4400
Wire Wire Line
	1700 4400 2100 4400
Connection ~ 1700 4400
Connection ~ 2100 4400
Wire Wire Line
	2100 4800 1700 4800
Connection ~ 2100 4800
Connection ~ 1700 4800
$Comp
L Connector:Micro_SD_Card_Det J1
U 1 1 5C63F8CB
P 3300 6350
AR Path="/5C63F8CB" Ref="J1"  Part="1" 
AR Path="/5C6A6B11/5C63F8CB" Ref="J1"  Part="1" 
F 0 "J1" H 3250 7167 50  0000 C CNN
F 1 "Molex 0473093351" H 3250 7076 50  0000 C CNN
F 2 "Footprints:microSD_HC_Molex_473093351" H 5350 7050 50  0001 C CNN
F 3 "https://www.molex.com/pdm_docs/sd/473093351_sd.pdf" H 3300 6450 50  0001 C CNN
	1    3300 6350
	1    0    0    -1  
$EndComp
Text GLabel 2300 6550 0    50   BiDi ~ 0
SDMMC1_D0
Text GLabel 2300 6650 0    50   BiDi ~ 0
SDMMC1_D1
Text GLabel 2300 5950 0    50   BiDi ~ 0
SDMMC1_D2
Text GLabel 2300 6050 0    50   BiDi ~ 0
SDMMC1_D3
Text GLabel 2300 6350 0    50   Input ~ 0
SDMMC1_CK
$Comp
L power:GND #PWR0137
U 1 1 5C64B2DB
P 1150 6450
F 0 "#PWR0137" H 1150 6200 50  0001 C CNN
F 1 "GND" V 1155 6322 50  0000 R CNN
F 2 "" H 1150 6450 50  0001 C CNN
F 3 "" H 1150 6450 50  0001 C CNN
	1    1150 6450
	0    1    1    0   
$EndComp
Wire Wire Line
	2400 6650 2300 6650
Wire Wire Line
	2300 6550 2400 6550
Wire Wire Line
	2300 6350 2400 6350
Wire Wire Line
	2400 6150 2300 6150
Wire Wire Line
	2300 6050 2400 6050
Wire Wire Line
	2400 5950 2300 5950
$Comp
L power:+3.3V #PWR0138
U 1 1 5C66115F
P 1150 6250
F 0 "#PWR0138" H 1150 6100 50  0001 C CNN
F 1 "+3.3V" V 1165 6378 50  0000 L CNN
F 2 "" H 1150 6250 50  0001 C CNN
F 3 "" H 1150 6250 50  0001 C CNN
	1    1150 6250
	0    -1   -1   0   
$EndComp
Wire Wire Line
	1150 6450 1250 6450
Connection ~ 1250 6450
$Comp
L power:GND #PWR0139
U 1 1 5C677350
P 4100 6950
F 0 "#PWR0139" H 4100 6700 50  0001 C CNN
F 1 "GND" H 4105 6777 50  0000 C CNN
F 2 "" H 4100 6950 50  0001 C CNN
F 3 "" H 4100 6950 50  0001 C CNN
	1    4100 6950
	1    0    0    -1  
$EndComp
Wire Wire Line
	4100 6850 4100 6950
Wire Wire Line
	1250 6750 1250 6450
Text GLabel 2300 6850 0    50   Output ~ 0
SDMMC1_DET
Text GLabel 2300 6150 0    50   BiDi ~ 0
SDMMC1_CMD
Wire Wire Line
	2300 6850 2400 6850
$Comp
L Connector:USB_B_Micro J2
U 1 1 5C69140A
P 7950 1500
F 0 "J2" H 8005 1967 50  0000 C CNN
F 1 "10118193-0001LF" H 8005 1876 50  0000 C CNN
F 2 "Footprints:USB_Micro-B_Amphenol-10118193-0001" H 8100 1450 50  0001 C CNN
F 3 "http://www.amphenol-icc.com/media/wysiwyg/files/drawing/10118193.pdf" H 8100 1450 50  0001 C CNN
	1    7950 1500
	1    0    0    -1  
$EndComp
Wire Wire Line
	8250 5550 8250 5650
Wire Wire Line
	8450 5550 8450 5650
Wire Wire Line
	8450 5650 8250 5650
Wire Wire Line
	7950 1900 7950 2000
Wire Wire Line
	7850 1900 7850 2000
$Comp
L Device:R_Small R10
U 1 1 5C6CE61D
P 8550 1500
F 0 "R10" V 8354 1500 50  0000 C CNN
F 1 "27/5%" V 8445 1500 50  0000 C CNN
F 2 "Resistor_SMD:R_0603_1608Metric" H 8550 1500 50  0001 C CNN
F 3 "~" H 8550 1500 50  0001 C CNN
	1    8550 1500
	0    1    1    0   
$EndComp
Text Label 9550 1600 0    50   ~ 0
USB_D-
Text Label 7550 4450 2    50   ~ 0
USB_D+
Text Label 7550 4350 2    50   ~ 0
USB_D-
$Comp
L power:GND #PWR0140
U 1 1 5C707FE2
P 8250 5750
F 0 "#PWR0140" H 8250 5500 50  0001 C CNN
F 1 "GND" H 8255 5577 50  0000 C CNN
F 2 "" H 8250 5750 50  0001 C CNN
F 3 "" H 8250 5750 50  0001 C CNN
	1    8250 5750
	1    0    0    -1  
$EndComp
$Comp
L power:+3.3V #PWR0142
U 1 1 5C732ED3
P 8250 3350
F 0 "#PWR0142" H 8250 3200 50  0001 C CNN
F 1 "+3.3V" H 8265 3523 50  0000 C CNN
F 2 "" H 8250 3350 50  0001 C CNN
F 3 "" H 8250 3350 50  0001 C CNN
	1    8250 3350
	1    0    0    -1  
$EndComp
Text GLabel 9150 4050 2    50   Output ~ 0
LPUART1_RX
Text GLabel 9150 4150 2    50   Input ~ 0
LPUART1_TX
$Comp
L Device:C_Small C9
U 1 1 5C789456
P 9150 1800
F 0 "C9" H 9242 1846 50  0000 L CNN
F 1 "10nF" H 9242 1755 50  0000 L CNN
F 2 "Capacitor_SMD:C_0603_1608Metric" H 9150 1800 50  0001 C CNN
F 3 "~" H 9150 1800 50  0001 C CNN
	1    9150 1800
	1    0    0    -1  
$EndComp
Wire Wire Line
	7850 2000 7950 2000
$Comp
L power:GND #PWR0143
U 1 1 5C7E2EED
P 7850 2000
F 0 "#PWR0143" H 7850 1750 50  0001 C CNN
F 1 "GND" H 7855 1827 50  0000 C CNN
F 2 "" H 7850 2000 50  0001 C CNN
F 3 "" H 7850 2000 50  0001 C CNN
	1    7850 2000
	1    0    0    -1  
$EndComp
Connection ~ 7850 2000
Text Label 9550 1500 0    50   ~ 0
USB_D+
$Comp
L Device:R_Small R11
U 1 1 5C855E3D
P 8950 1600
F 0 "R11" V 8754 1600 50  0000 C CNN
F 1 "27/5%" V 8845 1600 50  0000 C CNN
F 2 "Resistor_SMD:R_0603_1608Metric" H 8950 1600 50  0001 C CNN
F 3 "~" H 8950 1600 50  0001 C CNN
	1    8950 1600
	0    1    1    0   
$EndComp
$Comp
L Device:L FB4
U 1 1 5C8887EF
P 9350 1300
F 0 "FB4" V 9540 1300 50  0000 C CNN
F 1 "1.5A/22R" V 9449 1300 50  0000 C CNN
F 2 "Inductor_SMD:L_0603_1608Metric" H 9350 1300 50  0001 C CNN
F 3 "https://ds.yuden.co.jp/TYCOMPAS/ut/detail?pn=BK1608HS220-T%20%20&u=M" H 9350 1300 50  0001 C CNN
	1    9350 1300
	0    -1   -1   0   
$EndComp
NoConn ~ 8250 1700
$Comp
L Device:C_Small C33
U 1 1 5C8A53EA
P 7450 4050
F 0 "C33" V 7679 4050 50  0000 C CNN
F 1 "100nF" V 7588 4050 50  0000 C CNN
F 2 "Capacitor_SMD:C_0603_1608Metric" H 7450 4050 50  0001 C CNN
F 3 "~" H 7450 4050 50  0001 C CNN
	1    7450 4050
	0    -1   -1   0   
$EndComp
$Comp
L Device:C_Small C32
U 1 1 5C8C272F
P 8050 3650
F 0 "C32" V 7821 3650 50  0000 C CNN
F 1 "100nF" V 7912 3650 50  0000 C CNN
F 2 "Capacitor_SMD:C_0603_1608Metric" H 8050 3650 50  0001 C CNN
F 3 "~" H 8050 3650 50  0001 C CNN
	1    8050 3650
	0    1    1    0   
$EndComp
$Comp
L power:GND #PWR0145
U 1 1 5C8C2738
P 7450 3650
F 0 "#PWR0145" H 7450 3400 50  0001 C CNN
F 1 "GND" V 7455 3522 50  0000 R CNN
F 2 "" H 7450 3650 50  0001 C CNN
F 3 "" H 7450 3650 50  0001 C CNN
	1    7450 3650
	0    1    1    0   
$EndComp
$Comp
L Device:C_Small C5
U 1 1 5C8E5CDB
P 8350 1800
F 0 "C5" H 8442 1846 50  0000 L CNN
F 1 "47pF" H 8442 1755 50  0000 L CNN
F 2 "Capacitor_SMD:C_0603_1608Metric" H 8350 1800 50  0001 C CNN
F 3 "~" H 8350 1800 50  0001 C CNN
	1    8350 1800
	1    0    0    -1  
$EndComp
$Comp
L Device:C_Small C6
U 1 1 5C8EFE9D
P 8750 1800
F 0 "C6" H 8842 1846 50  0000 L CNN
F 1 "47pF" H 8842 1755 50  0000 L CNN
F 2 "Capacitor_SMD:C_0603_1608Metric" H 8750 1800 50  0001 C CNN
F 3 "~" H 8750 1800 50  0001 C CNN
	1    8750 1800
	1    0    0    -1  
$EndComp
Wire Wire Line
	9150 1900 9150 2000
Wire Wire Line
	8350 1900 8350 2000
Wire Wire Line
	8750 1900 8750 2000
Wire Wire Line
	9150 1700 9150 1300
Wire Wire Line
	8350 1700 8350 1500
Wire Wire Line
	8250 1600 8750 1600
Wire Wire Line
	8750 1600 8750 1700
$Comp
L power:VBUS #PWR0146
U 1 1 5C9AF3E5
P 9550 1300
F 0 "#PWR0146" H 9550 1150 50  0001 C CNN
F 1 "VBUS" V 9565 1428 50  0000 L CNN
F 2 "" H 9550 1300 50  0001 C CNN
F 3 "" H 9550 1300 50  0001 C CNN
	1    9550 1300
	0    1    1    0   
$EndComp
Wire Wire Line
	7950 2000 8350 2000
Wire Wire Line
	8350 1500 8250 1500
Connection ~ 8350 2000
Wire Wire Line
	8350 2000 8750 2000
Wire Wire Line
	8350 1500 8450 1500
Connection ~ 8350 1500
Wire Wire Line
	8650 1500 9550 1500
Wire Wire Line
	8750 1600 8850 1600
Connection ~ 8750 1600
Wire Wire Line
	9150 2000 8750 2000
Connection ~ 8750 2000
Wire Wire Line
	9500 1300 9550 1300
Wire Wire Line
	9050 1600 9550 1600
Connection ~ 9150 1300
Wire Wire Line
	9200 1300 9150 1300
Wire Wire Line
	8250 1300 9150 1300
Connection ~ 7950 2000
Wire Wire Line
	9050 4150 9150 4150
Wire Wire Line
	9050 4050 9150 4050
Text GLabel 9150 4950 2    50   Output ~ 0
USB_CBUS0
Text GLabel 9150 5050 2    50   Output ~ 0
USB_CBUS1
Text GLabel 9150 5150 2    50   Output ~ 0
BCD
Wire Wire Line
	9050 5150 9150 5150
Wire Wire Line
	9150 5050 9050 5050
Wire Wire Line
	9050 4950 9150 4950
$Comp
L Device:C_Small C43
U 1 1 5C857BB4
P 7750 3450
F 0 "C43" V 7521 3450 50  0000 C CNN
F 1 "4.7uF/16V" V 7612 3450 50  0000 C CNN
F 2 "Capacitor_SMD:C_0603_1608Metric" H 7750 3450 50  0001 C CNN
F 3 "~" H 7750 3450 50  0001 C CNN
	1    7750 3450
	0    1    1    0   
$EndComp
Wire Wire Line
	7550 4350 7650 4350
Wire Wire Line
	7550 4450 7650 4450
Wire Wire Line
	7550 4650 7650 4650
$Comp
L Device:C_Small C45
U 1 1 5CB8D034
P 1250 6350
F 0 "C45" H 1342 6396 50  0000 L CNN
F 1 "10uF/10V" H 1342 6305 50  0000 L CNN
F 2 "Capacitor_SMD:C_0603_1608Metric" H 1250 6350 50  0001 C CNN
F 3 "~" H 1250 6350 50  0001 C CNN
	1    1250 6350
	1    0    0    -1  
$EndComp
Wire Wire Line
	1150 6250 1250 6250
Connection ~ 1250 6250
Wire Wire Line
	1250 6250 2400 6250
Wire Wire Line
	1250 6450 2400 6450
Wire Wire Line
	1250 6750 2400 6750
Text Label 8300 1500 1    50   ~ 0
D+
Text Label 8300 1600 1    50   ~ 0
D-
$Comp
L power:GND #PWR0174
U 1 1 5C7F05C5
P 9150 4350
F 0 "#PWR0174" H 9150 4100 50  0001 C CNN
F 1 "GND" V 9155 4222 50  0000 R CNN
F 2 "" H 9150 4350 50  0001 C CNN
F 3 "" H 9150 4350 50  0001 C CNN
	1    9150 4350
	0    -1   -1   0   
$EndComp
$Comp
L power:GND #PWR0175
U 1 1 5C7F06D7
P 9150 4550
F 0 "#PWR0175" H 9150 4300 50  0001 C CNN
F 1 "GND" V 9155 4422 50  0000 R CNN
F 2 "" H 9150 4550 50  0001 C CNN
F 3 "" H 9150 4550 50  0001 C CNN
	1    9150 4550
	0    -1   -1   0   
$EndComp
$Comp
L power:GND #PWR0176
U 1 1 5C7F07E9
P 9150 4650
F 0 "#PWR0176" H 9150 4400 50  0001 C CNN
F 1 "GND" V 9155 4522 50  0000 R CNN
F 2 "" H 9150 4650 50  0001 C CNN
F 3 "" H 9150 4650 50  0001 C CNN
	1    9150 4650
	0    -1   -1   0   
$EndComp
$Comp
L power:GND #PWR0177
U 1 1 5C7F08FB
P 9150 4750
F 0 "#PWR0177" H 9150 4500 50  0001 C CNN
F 1 "GND" V 9155 4622 50  0000 R CNN
F 2 "" H 9150 4750 50  0001 C CNN
F 3 "" H 9150 4750 50  0001 C CNN
	1    9150 4750
	0    -1   -1   0   
$EndComp
Wire Wire Line
	9150 4650 9050 4650
Wire Wire Line
	9050 4550 9150 4550
Wire Wire Line
	9150 4750 9050 4750
Wire Wire Line
	9050 4350 9150 4350
Text GLabel 10350 4250 2    50   Output ~ 0
BOOT0
Text GLabel 10350 4450 2    50   Output ~ 0
NRST
$Comp
L Device:D D2
U 1 1 5C85A4CC
P 9800 4450
F 0 "D2" H 9800 4666 50  0000 C CNN
F 1 "30V/100mA" H 9800 4575 50  0000 C CNN
F 2 "Rounded:D_SOD-523" H 9800 4450 50  0001 C CNN
F 3 "~" H 9800 4450 50  0001 C CNN
	1    9800 4450
	1    0    0    -1  
$EndComp
Wire Wire Line
	9050 4450 9650 4450
$Comp
L Device:D D3
U 1 1 5C8E7D94
P 10100 4250
F 0 "D3" H 10100 4034 50  0000 C CNN
F 1 "30V/100mA" H 10100 4125 50  0000 C CNN
F 2 "Rounded:D_SOD-523" H 10100 4250 50  0001 C CNN
F 3 "~" H 10100 4250 50  0001 C CNN
	1    10100 4250
	-1   0    0    1   
$EndComp
Wire Wire Line
	9950 4450 10350 4450
Wire Wire Line
	10350 4250 10250 4250
Wire Wire Line
	9050 4250 9950 4250
Text GLabel 6900 4650 0    50   Input ~ 0
USB_RESET
$Comp
L Device:R_Small R25
U 1 1 5D2C3979
P 7550 4850
F 0 "R25" H 7491 4804 50  0000 R CNN
F 1 "100k/5%" H 7491 4895 50  0000 R CNN
F 2 "Resistor_SMD:R_0603_1608Metric" H 7550 4850 50  0001 C CNN
F 3 "~" H 7550 4850 50  0001 C CNN
	1    7550 4850
	1    0    0    1   
$EndComp
Wire Wire Line
	7550 4750 7550 4650
Connection ~ 7550 4650
$Comp
L power:+3.3V #PWR0178
U 1 1 5D2EBA97
P 7550 5050
F 0 "#PWR0178" H 7550 4900 50  0001 C CNN
F 1 "+3.3V" H 7565 5223 50  0000 C CNN
F 2 "" H 7550 5050 50  0001 C CNN
F 3 "" H 7550 5050 50  0001 C CNN
	1    7550 5050
	-1   0    0    1   
$EndComp
Wire Wire Line
	7550 4950 7550 5050
$Comp
L Connector:TestPoint TP?
U 1 1 5C936456
P 7000 4550
AR Path="/5C6A25D2/5C936456" Ref="TP?"  Part="1" 
AR Path="/5C6A6B11/5C936456" Ref="TP4"  Part="1" 
F 0 "TP4" H 7058 4670 50  0000 L CNN
F 1 "USB_RESET" H 7058 4579 50  0000 L CNN
F 2 "TestPoint:TestPoint_Pad_D1.0mm" H 7200 4550 50  0001 C CNN
F 3 "~" H 7200 4550 50  0001 C CNN
	1    7000 4550
	1    0    0    -1  
$EndComp
Wire Wire Line
	7000 4650 7000 4550
Wire Wire Line
	7000 4650 7550 4650
Wire Wire Line
	6900 4650 7000 4650
Connection ~ 7000 4650
$Comp
L Device:C_Small C52
U 1 1 5C8C69CB
P 8650 3650
F 0 "C52" V 8421 3650 50  0000 C CNN
F 1 "100nF" V 8512 3650 50  0000 C CNN
F 2 "Capacitor_SMD:C_0603_1608Metric" H 8650 3650 50  0001 C CNN
F 3 "~" H 8650 3650 50  0001 C CNN
	1    8650 3650
	0    1    1    0   
$EndComp
Wire Wire Line
	7550 3450 7550 3650
Connection ~ 7550 3650
$Comp
L Device:R_Small R26
U 1 1 5CD14C12
P 9800 5050
F 0 "R26" H 9859 5096 50  0000 L CNN
F 1 "4.7k/1%" H 9859 5005 50  0000 L CNN
F 2 "Resistor_SMD:R_0603_1608Metric" H 9800 5050 50  0001 C CNN
F 3 "~" H 9800 5050 50  0001 C CNN
	1    9800 5050
	1    0    0    -1  
$EndComp
$Comp
L Device:R_Small R27
U 1 1 5CD14D55
P 9800 5450
F 0 "R27" H 9859 5496 50  0000 L CNN
F 1 "10k/1%" H 9859 5405 50  0000 L CNN
F 2 "Resistor_SMD:R_0603_1608Metric" H 9800 5450 50  0001 C CNN
F 3 "~" H 9800 5450 50  0001 C CNN
	1    9800 5450
	1    0    0    -1  
$EndComp
$Comp
L power:VBUS #PWR0141
U 1 1 5CD53183
P 9800 4850
F 0 "#PWR0141" H 9800 4700 50  0001 C CNN
F 1 "VBUS" H 9815 5023 50  0000 C CNN
F 2 "" H 9800 4850 50  0001 C CNN
F 3 "" H 9800 4850 50  0001 C CNN
	1    9800 4850
	1    0    0    -1  
$EndComp
$Comp
L power:GND #PWR0144
U 1 1 5CD53274
P 9800 5650
F 0 "#PWR0144" H 9800 5400 50  0001 C CNN
F 1 "GND" H 9805 5477 50  0000 C CNN
F 2 "" H 9800 5650 50  0001 C CNN
F 3 "" H 9800 5650 50  0001 C CNN
	1    9800 5650
	1    0    0    -1  
$EndComp
Wire Wire Line
	9800 5650 9800 5550
Wire Wire Line
	9800 4950 9800 4850
Wire Wire Line
	9800 5150 9800 5250
Wire Wire Line
	9800 5250 9050 5250
Connection ~ 9800 5250
Wire Wire Line
	9800 5250 9800 5350
Wire Wire Line
	7650 4050 7600 4050
$Comp
L power:GND #PWR0179
U 1 1 5CF040A2
P 7250 4050
F 0 "#PWR0179" H 7250 3800 50  0001 C CNN
F 1 "GND" V 7255 3922 50  0000 R CNN
F 2 "" H 7250 4050 50  0001 C CNN
F 3 "" H 7250 4050 50  0001 C CNN
	1    7250 4050
	0    1    1    0   
$EndComp
Wire Wire Line
	7250 4050 7350 4050
Wire Wire Line
	7650 3450 7550 3450
Wire Wire Line
	8150 3650 8250 3650
Wire Wire Line
	7850 3450 8250 3450
Wire Wire Line
	7550 3650 7950 3650
Wire Wire Line
	7600 4050 7600 4200
Connection ~ 7600 4050
Wire Wire Line
	7600 4050 7550 4050
$Comp
L power:+3.3V #PWR0180
U 1 1 5D0FFFA0
P 7200 4200
F 0 "#PWR0180" H 7200 4050 50  0001 C CNN
F 1 "+3.3V" V 7215 4328 50  0000 L CNN
F 2 "" H 7200 4200 50  0001 C CNN
F 3 "" H 7200 4200 50  0001 C CNN
	1    7200 4200
	0    -1   -1   0   
$EndComp
Wire Wire Line
	7200 4200 7600 4200
$Comp
L ft231xs_fixed:FT231XS_Fixed U3
U 1 1 5C78694D
P 8350 4750
F 0 "U3" H 7850 5650 50  0000 C CNN
F 1 "FT231XS" H 8900 5650 50  0000 C CNN
F 2 "Rounded:SSOP-20_3.9x8.7mm_P0.635mm" H 8550 4050 50  0001 L CNN
F 3 "https://www.ftdichip.com/Support/Documents/DataSheets/ICs/DS_FT231X.pdf" H 8550 3950 50  0001 L CNN
	1    8350 4750
	1    0    0    -1  
$EndComp
$Comp
L power:+3.3V #PWR0181
U 1 1 5D17FAA0
P 8450 3350
F 0 "#PWR0181" H 8450 3200 50  0001 C CNN
F 1 "+3.3V" H 8465 3523 50  0000 C CNN
F 2 "" H 8450 3350 50  0001 C CNN
F 3 "" H 8450 3350 50  0001 C CNN
	1    8450 3350
	1    0    0    -1  
$EndComp
Wire Wire Line
	7550 3650 7450 3650
$Comp
L power:GND #PWR02
U 1 1 5C88BC01
P 8850 3650
F 0 "#PWR02" H 8850 3400 50  0001 C CNN
F 1 "GND" V 8855 3522 50  0000 R CNN
F 2 "" H 8850 3650 50  0001 C CNN
F 3 "" H 8850 3650 50  0001 C CNN
	1    8850 3650
	0    -1   -1   0   
$EndComp
Wire Wire Line
	8850 3650 8750 3650
Wire Wire Line
	8550 3650 8450 3650
Wire Wire Line
	900  4800 900  4900
Connection ~ 900  4800
Wire Wire Line
	900  4300 900  4400
Connection ~ 900  4400
$Comp
L nds36p:NDS36P U2
U 1 1 5C5C5A88
P 2150 2400
F 0 "U2" H 1550 3650 50  0000 C CNN
F 1 "NDS36PT5-20ET" H 2800 3650 50  0000 C CNN
F 2 "Rounded:TSOP-II-54_22.2x10.16mm_P0.8mm" H 1550 3650 50  0001 C CNN
F 3 "http://insignis-tech.com/download/145" H 3450 1050 50  0001 C CNN
	1    2150 2400
	1    0    0    -1  
$EndComp
Wire Wire Line
	1850 3950 1850 3850
Wire Wire Line
	1950 3750 1950 3850
Wire Wire Line
	1950 3850 1850 3850
Connection ~ 1850 3850
Wire Wire Line
	1850 3850 1850 3750
Wire Wire Line
	2050 3750 2050 3850
Wire Wire Line
	2050 3850 1950 3850
Connection ~ 1950 3850
Wire Wire Line
	2150 3750 2150 3850
Wire Wire Line
	2250 3750 2250 3850
Wire Wire Line
	2250 3850 2150 3850
Wire Wire Line
	2350 3750 2350 3850
Wire Wire Line
	2350 3850 2250 3850
Connection ~ 2250 3850
Wire Wire Line
	2450 3750 2450 3850
Wire Wire Line
	2450 3850 2350 3850
Connection ~ 2350 3850
$Comp
L power:GND #PWR09
U 1 1 5CDC230A
P 2150 3950
F 0 "#PWR09" H 2150 3700 50  0001 C CNN
F 1 "GND" H 2155 3777 50  0000 C CNN
F 2 "" H 2150 3950 50  0001 C CNN
F 3 "" H 2150 3950 50  0001 C CNN
	1    2150 3950
	1    0    0    -1  
$EndComp
Wire Wire Line
	2150 3950 2150 3850
Connection ~ 2150 3850
Wire Wire Line
	1850 1050 1850 950 
$Comp
L power:+3.3V #PWR08
U 1 1 5CE14B2E
P 2150 850
F 0 "#PWR08" H 2150 700 50  0001 C CNN
F 1 "+3.3V" H 2165 1023 50  0000 C CNN
F 2 "" H 2150 850 50  0001 C CNN
F 3 "" H 2150 850 50  0001 C CNN
	1    2150 850 
	1    0    0    -1  
$EndComp
Wire Wire Line
	2150 850  2150 950 
Wire Wire Line
	2250 1050 2250 950 
Wire Wire Line
	2250 950  2150 950 
Connection ~ 2150 950 
Wire Wire Line
	2150 950  2150 1050
Wire Wire Line
	2250 950  2350 950 
Wire Wire Line
	2350 950  2350 1050
Connection ~ 2250 950 
Wire Wire Line
	2350 950  2450 950 
Wire Wire Line
	2450 950  2450 1050
Connection ~ 2350 950 
Wire Wire Line
	1850 950  1950 950 
Wire Wire Line
	1950 950  1950 1050
Connection ~ 1850 950 
Wire Wire Line
	1850 950  1850 850 
Wire Wire Line
	1950 950  2050 950 
Wire Wire Line
	2050 950  2050 1050
Connection ~ 1950 950 
Connection ~ 8450 3650
Wire Wire Line
	8450 3650 8450 3750
Connection ~ 8250 3450
Connection ~ 8250 3650
Wire Wire Line
	8250 3650 8250 3750
Wire Wire Line
	8250 3450 8250 3650
Wire Wire Line
	8250 3350 8250 3450
Wire Wire Line
	8450 3350 8450 3650
Wire Wire Line
	8250 5650 8250 5750
Connection ~ 8250 5650
$EndSCHEMATC
